County Roll-up
…
## `summarise()` has grouped output by 'YEAR', 'STATE'. You can override using the `.groups` argument.

SVI_County

## # A tibble: 9,426 x 27
## # Groups:   YEAR, STATE [153]
##     YEAR STATE COUNTY CE_TOTPOP CE_AREA_SQMI  CE_HU CE_HH CE_POV CE_UNEMP CE_PCI
##    <dbl> <chr> <chr>      <dbl>        <dbl>  <dbl> <dbl>  <dbl>    <dbl>  <dbl>
##  1  2014 ALAB~ AUTAU~     55136         594.  22431 20304   7006     2252  24644
##  2  2014 ALAB~ BALDW~    191205        1590. 105563 73058  25988     7856  26851
##  3  2014 ALAB~ BARBO~     27119         885.  11833  9145   5832     1527  17350
##  4  2014 ALAB~ BIBB       22653         623.   8985  7078   3596      975  18110
##  5  2014 ALAB~ BLOUNT     57645         645.  23868 20934   9866     2291  20501
##  6  2014 ALAB~ BULLO~     10693         623.   4469  3746   2085      809  17705
##  7  2014 ALAB~ BUTLER     20523         777.   9934  8253   5239     1075  18115
##  8  2014 ALAB~ CALHO~    117186         606.  53306 45348  24794     7257  21304
##  9  2014 ALAB~ CHAMB~     34091         597.  16944 13901   8051     1916  21239
## 10  2014 ALAB~ CHERO~     26042         554.  16254 11726   5370     1114  22234
## # ... with 9,416 more rows, and 17 more variables: CE_NOHSDP <dbl>,
## #   CE_MUNIT <dbl>, CE_MOBILE <dbl>, CE_CROWD <dbl>, CE_NOVEH <dbl>,
## #   CE_GROUPQ <dbl>, CE_AGE17 <dbl>, CE_AGE65 <dbl>, CE_DISABL <dbl>,
## #   CE_SNGPNT <dbl>, CE_MINRTY <dbl>, CE_LIMENG <dbl>, CE_AGE25 <dbl>,
## #   CE_AGE16 <dbl>, CE_AGE5 <dbl>, CE_NOINST <dbl>, CE_OCCHU <dbl>
…
SVI_County

## # A tibble: 9,426 x 42
## # Groups:   YEAR, STATE [153]
##     YEAR STATE COUNTY CE_TOTPOP CE_AREA_SQMI  CE_HU CE_HH CE_POV CE_UNEMP CE_PCI
##    <dbl> <chr> <chr>      <dbl>        <dbl>  <dbl> <dbl>  <dbl>    <dbl>  <dbl>
##  1  2014 ALAB~ AUTAU~     55136         594.  22431 20304   7006     2252  24644
##  2  2014 ALAB~ BALDW~    191205        1590. 105563 73058  25988     7856  26851
##  3  2014 ALAB~ BARBO~     27119         885.  11833  9145   5832     1527  17350
##  4  2014 ALAB~ BIBB       22653         623.   8985  7078   3596      975  18110
##  5  2014 ALAB~ BLOUNT     57645         645.  23868 20934   9866     2291  20501
##  6  2014 ALAB~ BULLO~     10693         623.   4469  3746   2085      809  17705
##  7  2014 ALAB~ BUTLER     20523         777.   9934  8253   5239     1075  18115
##  8  2014 ALAB~ CALHO~    117186         606.  53306 45348  24794     7257  21304
##  9  2014 ALAB~ CHAMB~     34091         597.  16944 13901   8051     1916  21239
## 10  2014 ALAB~ CHERO~     26042         554.  16254 11726   5370     1114  22234
## # ... with 9,416 more rows, and 32 more variables: CE_NOHSDP <dbl>,
## #   CE_MUNIT <dbl>, CE_MOBILE <dbl>, CE_CROWD <dbl>, CE_NOVEH <dbl>,
## #   CE_GROUPQ <dbl>, CE_AGE17 <dbl>, CE_AGE65 <dbl>, CE_DISABL <dbl>,
## #   CE_SNGPNT <dbl>, CE_MINRTY <dbl>, CE_LIMENG <dbl>, CE_AGE25 <dbl>,
## #   CE_AGE16 <dbl>, CE_AGE5 <dbl>, CE_NOINST <dbl>, CE_OCCHU <dbl>,
## #   CEP_POV <dbl>, CEP_UNEMP <dbl>, CEP_PCI <dbl>, CEP_NOHSDP <dbl>,
## #   CEP_MUNIT <dbl>, CEP_MOBLIE <dbl>, CEP_CROWD <dbl>, CEP_NOVEH <dbl>, ...
…
              ungroup() %>% 
              mutate(CEPL_MINRTY = percent_rank(CEP_MINRTY),
                     CEPL_LIMENG = percent_rank(CEP_LIMENG),
                     CSPL_THEME3 = percent_rank(CEP_MINRTY) + percent_rank(CEP_LIMENG),
                     CRPL_THEME3 = percent_rank(percent_rank(CEP_MINRTY) + percent_rank(CEP_LIMENG)),
                     CEPL_MUNIT  = percent_rank(CEP_MUNIT),
                     CEPL_MOBILE = percent_rank(CEP_MOBLIE),
                     CEPL_CROWD  = percent_rank(CEP_CROWD),
                     CEPL_NOVEH  = percent_rank(CEP_NOVEH),
                     CEPL_GROUPQ = percent_rank(CEP_GROUPQ),
                     CSPL_THEME4 = percent_rank(CEP_MUNIT) + percent_rank(CEP_MOBLIE) + percent_rank(CEP_CROWD) + percent_rank(CEP_NOVEH) + percent_rank(CEP_GROUPQ),
                     CRPL_THEME4 = percent_rank(percent_rank(CEP_MUNIT) + percent_rank(CEP_MOBLIE) + percent_rank(CEP_CROWD) + percent_rank(CEP_NOVEH) + percent_rank(CEP_GROUPQ)))
SVI_County

## # A tibble: 9,426 x 53
##     YEAR STATE COUNTY CE_TOTPOP CE_AREA_SQMI  CE_HU CE_HH CE_POV CE_UNEMP CE_PCI
##    <dbl> <chr> <chr>      <dbl>        <dbl>  <dbl> <dbl>  <dbl>    <dbl>  <dbl>
##  1  2014 ALAB~ AUTAU~     55136         594.  22431 20304   7006     2252  24644
##  2  2014 ALAB~ BALDW~    191205        1590. 105563 73058  25988     7856  26851
##  3  2014 ALAB~ BARBO~     27119         885.  11833  9145   5832     1527  17350
##  4  2014 ALAB~ BIBB       22653         623.   8985  7078   3596      975  18110
##  5  2014 ALAB~ BLOUNT     57645         645.  23868 20934   9866     2291  20501
##  6  2014 ALAB~ BULLO~     10693         623.   4469  3746   2085      809  17705
##  7  2014 ALAB~ BUTLER     20523         777.   9934  8253   5239     1075  18115
##  8  2014 ALAB~ CALHO~    117186         606.  53306 45348  24794     7257  21304
##  9  2014 ALAB~ CHAMB~     34091         597.  16944 13901   8051     1916  21239
## 10  2014 ALAB~ CHERO~     26042         554.  16254 11726   5370     1114  22234
## # ... with 9,416 more rows, and 43 more variables: CE_NOHSDP <dbl>,
## #   CE_MUNIT <dbl>, CE_MOBILE <dbl>, CE_CROWD <dbl>, CE_NOVEH <dbl>,
## #   CE_GROUPQ <dbl>, CE_AGE17 <dbl>, CE_AGE65 <dbl>, CE_DISABL <dbl>,
## #   CE_SNGPNT <dbl>, CE_MINRTY <dbl>, CE_LIMENG <dbl>, CE_AGE25 <dbl>,
## #   CE_AGE16 <dbl>, CE_AGE5 <dbl>, CE_NOINST <dbl>, CE_OCCHU <dbl>,
## #   CEP_POV <dbl>, CEP_UNEMP <dbl>, CEP_PCI <dbl>, CEP_NOHSDP <dbl>,
## #   CEP_MUNIT <dbl>, CEP_MOBLIE <dbl>, CEP_CROWD <dbl>, CEP_NOVEH <dbl>, ...
…
